{
  "departments": [
    {
      "id": 1,
      "departmentName": "Dentists",
      "apiKey": "70fa2f18-qq67-4f82-bf07-11ad7e6dc03b",
      "departmentContactPerson": {
        "name": "Fredericka Sanchez",
        "email": "Fredericka Sanchez@oncology.lmu.de",
        "phone": "089276861523"
      }
    },
    {
      "departmentName": "resre",
      "apiKey": "rewerw-rwerew-rewrew-rewrew",
      "departmentContactPerson": {
        "name": "Rian",
        "email": "dasdas@ds.com",
        "phone": "55225522555"
      },
      "id": 2
    }
  ]
}